…
``` r
# First, run `load_all()` to ensure that this package's functions are available
# devtools::load_all()
library(djprshiny)
dash_data <- load_dash_data()
```

Note that `dash_data` is a data frame (tibble) with a nested structure.
Each row of the tibble corresponds to an ABS series ID. The `data`
column of the tibble contains a list of tibbles that must be unnested
prior to use.

``` r
dash_data
#> # A tibble: 784 × 25
#>    series_id        data age   gcc_restofstate indicator sex   industry duration
#>    <chr>       <list<ti> <chr> <chr>           <chr>     <chr> <chr>    <chr>   
#>  1 15-24_empl… [273 × 8] 15-24 Australian Cap… Employed  ""    ""       ""      
#>  2 15-24_empl… [273 × 8] 15-24 Greater Adelai… Employed  ""    ""       ""      
#>  3 15-24_empl… [273 × 8] 15-24 Greater Brisba… Employed  ""    ""       ""      
#>  4 15-24_empl… [273 × 8] 15-24 Greater Darwin  Employed  ""    ""       ""      
#>  5 15-24_empl… [273 × 8] 15-24 Greater Hobart  Employed  ""    ""       ""      
#>  6 15-24_empl… [273 × 8] 15-24 Greater Melbou… Employed  ""    ""       ""      
#>  7 15-24_empl… [273 × 8] 15-24 Greater Perth   Employed  ""    ""       ""      
#>  8 15-24_empl… [273 × 8] 15-24 Greater Sydney  Employed  ""    ""       ""      
#>  9 15-24_empl… [273 × 8] 15-24 Rest of NSW     Employed  ""    ""       ""      
#> 10 15-24_empl… [273 × 8] 15-24 Rest of NT      Employed  ""    ""       ""      
#> # … with 774 more rows, and 17 more variables: state <chr>, current_lfs <chr>,
#> #   dependents <chr>, duration_of_unemp <chr>, duration_with_employer <chr>,
#> #   education_attendance <chr>, exp_future_emp <chr>, highest_ed <chr>,
#> #   hours <chr>, industry_subdiv <chr>, marital_status <chr>,
#> #   market_nonmarket <chr>, occupation <chr>, relship_in_hhold <chr>,
#> #   sa4 <chr>, sector <chr>, status_in_emp <chr>
```

### Filtering dashboard data

Users generally work with the `dash_data` object using the
`filter_dash_data()` function. This function takes a vector of ABS time
series ID(s) and returned a tibble containing the corresponding data.
This output is unnested for the user, meaning that project contributors
can generally ignore the nested nature of `dash_data`.

A lookup table of series IDs is available from the `djprdashdata`
package:

``` r
djprdashdata::lfs_lookup
#> # A tibble: 22,171 × 28
#>    age   gcc_restofstate  indicator series_id series series_type table_no cat_no
#>    <chr> <chr>            <chr>     <chr>     <chr>  <chr>       <chr>    <chr> 
#>  1 15-24 Australian Capi… Employed  15-24_em… 15-24… Original    RM1      6291.…
#>  2 15-24 Australian Capi… NILF      15-24_ni… 15-24… Original    RM1      6291.…
#>  3 15-24 Australian Capi… Unemploy… 15-24_un… 15-24… Original    RM1      6291.…
#>  4 15-24 Greater Adelaide Employed  15-24_em… 15-24… Original    RM1      6291.…
#>  5 15-24 Greater Adelaide NILF      15-24_ni… 15-24… Original    RM1      6291.…
#>  6 15-24 Greater Adelaide Unemploy… 15-24_un… 15-24… Original    RM1      6291.…
#>  7 15-24 Greater Brisbane Employed  15-24_em… 15-24… Original    RM1      6291.…
#>  8 15-24 Greater Brisbane NILF      15-24_ni… 15-24… Original    RM1      6291.…
#>  9 15-24 Greater Brisbane Unemploy… 15-24_un… 15-24… Original    RM1      6291.…
#> 10 15-24 Greater Darwin   Employed  15-24_em… 15-24… Original    RM1      6291.…
#> # … with 22,161 more rows, and 20 more variables: sex <chr>, industry <chr>,
#> #   duration <chr>, state <chr>, current_lfs <chr>, dependents <chr>,
#> #   duration_of_unemp <chr>, duration_with_employer <chr>,
#> #   education_attendance <chr>, exp_future_emp <chr>, highest_ed <chr>,
#> #   hours <chr>, industry_subdiv <chr>, marital_status <chr>,
#> #   market_nonmarket <chr>, occupation <chr>, relship_in_hhold <chr>,
#> #   sa4 <chr>, sector <chr>, status_in_emp <chr>
```

If a user wanted to get a data frame with the number of unemployed
people in Bendigo each month from 1998 to present, they would use
`filter_dash_data()` as follows:

``` r
bendigo_unemp <- filter_dash_data("A84600028X")
bendigo_unemp
#> # A tibble: 273 × 32
#>    series_id  date       value series   series_type table_no data_type frequency
#>    <chr>      <date>     <dbl> <chr>    <chr>       <chr>    <chr>     <chr>    
#>  1 A84600028X 1998-10-01  5.01 >>> Ben… Original    6291016  STOCK     Month    
#>  2 A84600028X 1998-11-01  6.66 >>> Ben… Original    6291016  STOCK     Month    
#>  3 A84600028X 1998-12-01  6.36 >>> Ben… Original    6291016  STOCK     Month    
#>  4 A84600028X 1999-01-01  6.56 >>> Ben… Original    6291016  STOCK     Month    
#>  5 A84600028X 1999-02-01  6.76 >>> Ben… Original    6291016  STOCK     Month    
#>  6 A84600028X 1999-03-01  5.47 >>> Ben… Original    6291016  STOCK     Month    
#>  7 A84600028X 1999-04-01  5.15 >>> Ben… Original    6291016  STOCK     Month    
#>  8 A84600028X 1999-05-01  6.20 >>> Ben… Original    6291016  STOCK     Month    
#>  9 A84600028X 1999-06-01  3.73 >>> Ben… Original    6291016  STOCK     Month    
#> 10 A84600028X 1999-07-01  2.74 >>> Ben… Original    6291016  STOCK     Month    
#> # … with 263 more rows, and 24 more variables: unit <chr>, age <chr>,
#> #   gcc_restofstate <chr>, indicator <chr>, sex <chr>, industry <chr>,
#> #   duration <chr>, state <chr>, current_lfs <chr>, dependents <chr>,
#> #   duration_of_unemp <chr>, duration_with_employer <chr>,
#> #   education_attendance <chr>, exp_future_emp <chr>, highest_ed <chr>,
#> #   hours <chr>, industry_subdiv <chr>, marital_status <chr>,
#> #   market_nonmarket <chr>, occupation <chr>, relship_in_hhold <chr>,
#> #   sa4 <chr>, sector <chr>, status_in_emp <chr>
```
…
